bench.vcd
$date
   Sun Nov 29 16:27:05 2015
$end
$version
  P.20131013
$end
$timescale
  1ps
$end
$scope module tb_spi_top $end
$var wire 1 ! adr [31] $end
$var wire 1 " adr [30] $end
$var wire 1 # adr [29] $end
$var wire 1 $ adr [28] $end
$var wire 1 % adr [27] $end
$var wire 1 & adr [26] $end
$var wire 1 ' adr [25] $end
$var wire 1 ( adr [24] $end
$var wire 1 ) adr [23] $end
$var wire 1 * adr [22] $end
$var wire 1 + adr [21] $end
$var wire 1 , adr [20] $end
$var wire 1 - adr [19] $end
$var wire 1 . adr [18] $end
$var wire 1 / adr [17] $end
$var wire 1 0 adr [16] $end
$var wire 1 1 adr [15] $end
$var wire 1 2 adr [14] $end
$var wire 1 3 adr [13] $end
$var wire 1 4 adr [12] $end
$var wire 1 5 adr [11] $end
$var wire 1 6 adr [10] $end
$var wire 1 7 adr [9] $end
$var wire 1 8 adr [8] $end
$var wire 1 9 adr [7] $end
$var wire 1 : adr [6] $end
$var wire 1 ; adr [5] $end
$var wire 1 < adr [4] $end
$var wire 1 = adr [3] $end
$var wire 1 > adr [2] $end
$var wire 1 ? adr [1] $end
$var wire 1 @ adr [0] $end
$var wire 1 A dat_i [31] $end
$var wire 1 B dat_i [30] $end
$var wire 1 C dat_i [29] $end
$var wire 1 D dat_i [28] $end
$var wire 1 E dat_i [27] $end
$var wire 1 F dat_i [26] $end
$var wire 1 G dat_i [25] $end
$var wire 1 H dat_i [24] $end
$var wire 1 I dat_i [23] $end
$var wire 1 J dat_i [22] $end
$var wire 1 K dat_i [21] $end
$var wire 1 L dat_i [20] $end
$var wire 1 M dat_i [19] $end
$var wire 1 N dat_i [18] $end
$var wire 1 O dat_i [17] $end
$var wire 1 P dat_i [16] $end
$var wire 1 Q dat_i [15] $end
$var wire 1 R dat_i [14] $end
$var wire 1 S dat_i [13] $end
$var wire 1 T dat_i [12] $end
$var wire 1 U dat_i [11] $end
$var wire 1 V dat_i [10] $end
$var wire 1 W dat_i [9] $end
$var wire 1 X dat_i [8] $end
$var wire 1 Y dat_i [7] $end
$var wire 1 Z dat_i [6] $end
$var wire 1 [ dat_i [5] $end
$var wire 1 \ dat_i [4] $end
$var wire 1 ] dat_i [3] $end
$var wire 1 ^ dat_i [2] $end
$var wire 1 _ dat_i [1] $end
$var wire 1 ` dat_i [0] $end
$var wire 1 a dat_o [31] $end
$var wire 1 b dat_o [30] $end
$var wire 1 c dat_o [29] $end
$var wire 1 d dat_o [28] $end
$var wire 1 e dat_o [27] $end
$var wire 1 f dat_o [26] $end
$var wire 1 g dat_o [25] $end
$var wire 1 h dat_o [24] $end
$var wire 1 i dat_o [23] $end
$var wire 1 j dat_o [22] $end
$var wire 1 k dat_o [21] $end
$var wire 1 l dat_o [20] $end
$var wire 1 m dat_o [19] $end
$var wire 1 n dat_o [18] $end
$var wire 1 o dat_o [17] $end
$var wire 1 p dat_o [16] $end
$var wire 1 q dat_o [15] $end
$var wire 1 r dat_o [14] $end
$var wire 1 s dat_o [13] $end
$var wire 1 t dat_o [12] $end
$var wire 1 u dat_o [11] $end
$var wire 1 v dat_o [10] $end
$var wire 1 w dat_o [9] $end
$var wire 1 x dat_o [8] $end
$var wire 1 y dat_o [7] $end
$var wire 1 z dat_o [6] $end
$var wire 1 { dat_o [5] $end
$var wire 1 | dat_o [4] $end
$var wire 1 } dat_o [3] $end
$var wire 1 ~ dat_o [2] $end
$var wire 1 !! dat_o [1] $end
$var wire 1 "! dat_o [0] $end
$var wire 1 #! we $end
$var wire 1 $! sel [3] $end
$var wire 1 %! sel [2] $end
$var wire 1 &! sel [1] $end
$var wire 1 '! sel [0] $end
$var wire 1 (! stb $end
$var wire 1 )! cyc $end
$var wire 1 *! ack $end
$var wire 1 +! err $end
$var wire 1 ,! int $end
$var wire 1 -! ss [7] $end
$var wire 1 .! ss [6] $end
$var wire 1 /! ss [5] $end
$var wire 1 0! ss [4] $end
$var wire 1 1! ss [3] $end
$var wire 1 2! ss [2] $end
$var wire 1 3! ss [1] $end
$var wire 1 @! ss [0] $end
$var wire 1 A! sclk $end
$var wire 1 B! mosi $end
$var wire 1 7! miso $end
$var reg 1 8! clk $end
$var reg 1 9! rst $end
$var reg 32 :! q [31:0] $end
$var reg 32 ;! q1 [31:0] $end
$var reg 32 <! q2 [31:0] $end
$var reg 32 =! q3 [31:0] $end
$var reg 32 >! result [31:0] $end
$scope module i_spi_slave $end
$var wire 1 ?! rst $end
$var wire 1 @! ss $end
$var wire 1 A! sclk $end
$var wire 1 B! mosi $end
$var reg 1 C! miso $end
$var reg 1 D! rx_negedge $end
$var reg 1 E! tx_negedge $end
$var reg 32 F! data [31:0] $end
$var reg 1 G! impl1 [0:0] $end
$var reg 1 H! impl2 [0:0] $end
$var reg 1 I! impl3 [0:0] $end
$var reg 1 J! impl4 [0:0] $end
$upscope $end
$upscope $end
$enddefinitions $end
#0
$dumpvars
08!
09!
bx :!
bx ;!
bx <!
bx =!
b0 >!
x$
x&
x-
x+
x2
x/
x,
x'
x*
x)
x%
x1
x.
x#
x0
x"
x(
xL
xB
xG
xY
xV
xT
xM
xS
x`
xR
x\
x^
xP
xN
xK
xF
xE
x]
xD
xC
xQ
x[
xI
xA
x"!
xO
x!!
x~
x!
xZ
x_
xJ
xW
xH
xX
xU
x?
x@
0?!
x9
x8
x7
x>
x=
x<
x;
x:
x6
x5
x4
x3
xb
xn
xg
xr
xp
x#!
x'!
xq
x&!
xx
xa
x%!
xk
xf
0)!
xu
xs
xo
x{
xl
xy
xv
xt
xh
xd
x$!
x(!
x}
xm
xj
x|
xw
xi
xc
xe
xz
x.!
x7!
x*!
xA!
x1!
x,!
x2!
xB!
x-!
x@!
0+!
x3!
x/!
x0!
xC!
0D!
0E!
bx F!
xG!
0H!
xI!
0J!
$end
#2000
19!
1?!
#3000
0L
0B
0G
0Y
0V
0T
0M
0S
0`
0R
0\
0^
0P
0N
0K
0F
0E
0]
0D
0C
0Q
0[
0I
0A
0O
0Z
0_
0J
0W
0H
0X
0U
1.!
0*!
0A!
11!
0,!
12!
0B!
1-!
1@!
13!
1/!
10!
b0 F!
0G!
0I!
#5000
18!
#10000
08!
#15000
18!
#20000
08!
#25000
18!
#30000
08!
#35000
18!
#40000
08!
#45000
18!
#50000
08!
#55000
18!
#60000
08!
#65000
18!
#70000
08!
#75000
18!
#80000
08!
#85000
18!
#90000
08!
#95000
18!
#100000
08!
#105000
18!
#110000
08!
#115000
18!
#120000
08!
#125000
18!
#130000
08!
#135000
18!
#140000
08!
#145000
18!
#150000
08!
#155000
18!
#160000
08!
#165000
18!
#170000
08!
#175000
18!
#180000
08!
#185000
18!
#190000
08!
#195000
18!
09!
0?!
#200000
08!
#205000
18!
#206000
0$
0&
0-
0+
02
0/
0,
0'
0*
0)
0%
01
0.
0#
00
0"
0(
xL
xB
xG
xY
xV
xT
xM
xS
x`
xR
x\
x^
xP
xN
xK
xF
xE
x]
xD
xC
xQ
x[
xI
xA
0"!
xO
0!!
0~
0!
xZ
x_
xJ
xW
xH
xX
xU
0?
0@
09
08
07
1>
0=
1<
0;
0:
06
05
04
03
0b
0n
0g
0r
0p
1#!
1'!
0q
1&!
0x
0a
1%!
0k
0f
1)!
0u
0s
0o
0{
0l
0y
0v
0t
0h
0d
1$!
1(!
0}
0m
0j
0|
0w
0i
0c
0e
0z
#210000
08!
#215000
18!
#216000
0L
0B
0G
0Y
0V
0T
0M
0S
0`
0R
0\
0^
0P
0N
0K
0F
0E
0]
0D
0C
0Q
0[
0I
0A
0O
0Z
0_
0J
0W
0H
0X
0U
1*!
#220000
08!
#225000
18!
#226000
x$
x&
x-
x+
x2
x/
x,
x'
x*
x)
x%
x1
x.
x#
x0
x"
x(
x"!
x!!
x~
x!
x?
x@
x9
x8
x7
x>
x=
x<
x;
x:
x6
x5
x4
x3
xb
xn
xg
xr
xp
x#!
x'!
xq
x&!
xx
xa
x%!
xk
xf
0)!
xu
xs
xo
x{
xl
xy
xv
xt
xh
xd
x$!
x(!
x}
xm
xj
x|
xw
xi
xc
xe
xz
0*!
#227000
0$
0&
0-
0+
02
0/
0,
0'
0*
0)
0%
01
0.
0#
00
0"
0(
0"!
1!!
0~
0!
0?
0@
09
08
07
0>
0=
0<
0;
0:
06
05
04
03
0b
0n
0g
0r
0p
1#!
1'!
0q
1&!
0x
0a
1%!
0k
0f
1)!
0u
0s
0o
0{
0l
0y
0v
0t
0h
0d
1$!
1(!
1}
0m
0j
1|
0w
0i
0c
0e
1z
#230000
08!
#235000
18!
#236000
1*!
#240000
08!
#245000
18!
#246000
x$
x&
x-
x+
x2
x/
x,
x'
x*
x)
x%
x1
x.
x#
x0
x"
x(
1\
1]
x"!
x!!
x~
x!
1Z
1_
x?
x@
x9
x8
x7
x>
x=
x<
x;
x:
x6
x5
x4
x3
xb
xn
xg
xr
xp
x#!
x'!
xq
x&!
xx
xa
x%!
xk
xf
0)!
xu
xs
xo
x{
xl
xy
xv
xt
xh
xd
x$!
x(!
x}
xm
xj
x|
xw
xi
xc
xe
xz
0*!
#247000
0$
0&
0-
0+
02
0/
0,
0'
0*
0)
0%
01
0.
0#
00
0"
0(
0"!
0!!
0~
0!
0?
0@
09
08
07
0>
0=
1<
0;
0:
06
05
04
03
0b
0n
0g
0r
0p
1#!
1'!
0q
1&!
0x
0a
1%!
0k
0f
1)!
0u
0s
0o
0{
0l
0y
0v
0t
0h
0d
1$!
1(!
1}
0m
0j
0|
1w
0i
0c
0e
0z
#250000
08!
#255000
18!
#256000
0\
0]
0Z
0_
1*!
#260000
08!
#265000
18!
#266000
x$
x&
x-
x+
x2
x/
x,
x'
x*
x)
x%
x1
x.
x#
x0
x"
x(
1]
x"!
x!!
x~
x!
1W
x?
x@
x9
x8
x7
x>
x=
x<
x;
x:
x6
x5
x4
x3
xb
xn
xg
xr
xp
x#!
x'!
xq
x&!
xx
xa
x%!
xk
xf
0)!
xu
xs
xo
x{
xl
xy
xv
xt
xh
xd
x$!
x(!
x}
xm
xj
x|
xw
xi
xc
xe
xz
0*!
#267000
0$
0&
0-
0+
02
0/
0,
0'
0*
0)
0%
01
0.
0#
00
0"
0(
1"!
0!!
0~
0!
0?
0@
09
08
07
0>
1=
1<
0;
0:
06
05
04
03
0b
0n
0g
0r
0p
1#!
1'!
0q
1&!
0x
0a
1%!
0k
0f
1)!
0u
0s
0o
0{
0l
0y
0v
0t
0h
0d
1$!
1(!
0}
0m
0j
0|
0w
0i
0c
0e
0z
#270000
08!
#275000
18!
#276000
0]
0W
1*!
0@!
#280000
08!
#285000
18!
#286000
x$
x&
x-
x+
x2
x/
x,
x'
x*
x)
x%
x1
x.
x#
x0
x"
x(
1`
x"!
x!!
x~
x!
x?
x@
x9
x8
x7
x>
x=
x<
x;
x:
x6
x5
x4
x3
xb
xn
xg
xr
xp
x#!
x'!
xq
x&!
xx
xa
x%!
xk
xf
0)!
xu
xs
xo
x{
xl
xy
xv
xt
xh
xd
x$!
x(!
x}
xm
xj
x|
xw
xi
xc
xe
xz
0*!
#287000
0$
0&
0-
0+
02
0/
0,
0'
0*
0)
0%
01
0.
0#
00
0"
0(
0!
0?
0@
09
08
07
1>
0=
1<
0;
0:
06
05
04
03
0#!
1'!
1&!
1%!
1)!
1$!
1(!
#290000
08!
#295000
18!
#296000
0`
1*!
#300000
08!
#305000
18!
#306000
x$
x&
x-
x+
x2
x/
x,
x'
x*
x)
x%
x1
x.
x#
x0
x"
x(
x!
x?
x@
x9
x8
x7
x>
x=
x<
x;
x:
x6
x5
x4
x3
x#!
x'!
x&!
x%!
0)!
x$!
x(!
0*!
#307000
0$
0&
0-
0+
02
0/
0,
0'
0*
0)
0%
01
0.
0#
00
0"
0(
0!
0?
0@
09
08
07
0>
0=
0<
0;
0:
06
05
04
03
0#!
1'!
1&!
1%!
1)!
1$!
1(!
#310000
08!
#315000
18!
#316000
1\
1]
1Z
1_
1*!
#320000
08!
#325000
18!
#326000
x$
x&
x-
x+
x2
x/
x,
x'
x*
x)
x%
x1
x.
x#
x0
x"
x(
x!
x?
x@
x9
x8
x7
x>
x=
x<
x;
x:
x6
x5
x4
x3
x#!
x'!
x&!
x%!
0)!
x$!
x(!
0*!
#327000
0$
0&
0-
0+
02
0/
0,
0'
0*
0)
0%
01
0.
0#
00
0"
0(
0!
0?
0@
09
08
07
0>
0=
1<
0;
0:
06
05
04
03
0#!
1'!
1&!
1%!
1)!
1$!
1(!
#330000
08!
#335000
18!
#336000
0\
0Z
0_
1W
1*!
#340000
08!
#345000
18!
#346000
x$
x&
x-
x+
x2
x/
x,
x'
x*
x)
x%
x1
x.
x#
x0
x"
x(
x!
x?
x@
x9
x8
x7
x>
x=
x<
x;
x:
x6
x5
x4
x3
x#!
x'!
x&!
x%!
0)!
x$!
x(!
0*!
#347000
0$
0&
0-
0+
02
0/
0,
0'
0*
0)
0%
01
0.
0#
00
0"
0(
0!
0?
0@
09
08
07
0>
1=
1<
0;
0:
06
05
04
03
0#!
1'!
1&!
1%!
1)!
1$!
1(!
#350000
08!
#355000
18!
#356000
1`
0]
0W
1*!
#360000
08!
#365000
18!
#366000
x$
x&
x-
x+
x2
x/
x,
x'
x*
x)
x%
x1
x.
x#
x0
x"
x(
x!
x?
x@
x9
x8
x7
x>
x=
x<
x;
x:
x6
x5
x4
x3
x#!
x'!
x&!
x%!
0)!
x$!
x(!
0*!
1D!
b10100101100101100111111001011010 F!
#367000
0$
0&
0-
0+
02
0/
0,
0'
0*
0)
0%
01
0.
0#
00
0"
0(
0"!
0!!
0~
0!
0?
0@
09
08
07
0>
0=
1<
0;
0:
06
05
04
03
0b
0n
0g
0r
0p
1#!
1'!
0q
1&!
1x
0a
1%!
0k
0f
1)!
0u
0s
0o
0{
0l
0y
0v
0t
0h
0d
1$!
1(!
1}
0m
0j
0|
1w
0i
0c
0e
0z
#370000
08!
#375000
18!
#376000
0`
1]
1W
1*!
#380000
08!
#385000
18!
#386000
x$
x&
x-
x+
x2
x/
x,
x'
x*
x)
x%
x1
x.
x#
x0
x"
x(
x"!
x!!
x~
x!
1X
x?
x@
x9
x8
x7
x>
x=
x<
x;
x:
x6
x5
x4
x3
xb
xn
xg
xr
xp
x#!
x'!
xq
x&!
xx
xa
x%!
xk
xf
0)!
xu
xs
xo
x{
xl
xy
xv
xt
xh
xd
x$!
x(!
x}
xm
xj
x|
xw
xi
xc
xe
xz
0*!
#387000
0$
0&
0-
0+
02
0/
0,
0'
0*
0)
0%
01
0.
0#
00
0"
0(
0!
0?
0@
09
08
07
0>
0=
1<
0;
0:
06
05
04
03
0#!
1'!
1&!
1%!
1)!
1$!
1(!
#390000
08!
#395000
18!
#396000
1*!
1A!
1H!
1I!
#397000
17!
1C!
#400000
08!
#405000
18!
#406000
b1100001000 :!
x$
x&
x-
x+
x2
x/
x,
x'
x*
x)
x%
x1
x.
x#
x0
x"
x(
x!
x?
x@
x9
x8
x7
x>
x=
x<
x;
x:
x6
x5
x4
x3
x#!
x'!
x&!
x%!
0)!
x$!
x(!
0*!
0A!
0H!
0I!
#407000
b1001011001011001111110010110100 F!
#410000
08!
#415000
18!
#416000
0$
0&
0-
0+
02
0/
0,
0'
0*
0)
0%
01
0.
0#
00
0"
0(
xL
xB
xG
xY
xV
xT
xM
xS
x`
xR
x\
x^
xP
xN
xK
xF
xE
x]
xD
xC
xQ
x[
xI
xA
xO
0!
xZ
x_
xJ
xW
xH
xX
xU
0?
0@
09
08
07
0>
0=
1<
0;
0:
06
05
04
03
0#!
1'!
1&!
1%!
1)!
1$!
1(!
1A!
1B!
1H!
1I!
#417000
07!
0C!
#420000
08!
#425000
18!
#426000
0L
0B
0G
0Y
0V
0T
0M
0S
0`
0R
0\
0^
0P
0N
0K
0F
0E
1]
0D
0C
0Q
0[
0I
0A
0O
0Z
0_
0J
1W
0H
1X
0U
1*!
0A!
0H!
0I!
#427000
b10010110010110011111100101101001 F!
#430000
08!
#435000
18!
#436000
x$
x&
x-
x+
x2
x/
x,
x'
x*
x)
x%
x1
x.
x#
x0
x"
x(
x!
x?
x@
x9
x8
x7
x>
x=
x<
x;
x:
x6
x5
x4
x3
x#!
x'!
x&!
x%!
0)!
x$!
x(!
0*!
1A!
0B!
1H!
1I!
#437000
17!
1C!
#440000
08!
#445000
18!
#446000
0$
0&
0-
0+
02
0/
0,
0'
0*
0)
0%
01
0.
0#
00
0"
0(
xL
xB
xG
xY
xV
xT
xM
xS
x`
xR
x\
x^
xP
xN
xK
xF
xE
x]
xD
xC
xQ
x[
xI
xA
xO
0!
xZ
x_
xJ
xW
xH
xX
xU
0?
0@
09
08
07
0>
0=
1<
0;
0:
06
05
04
03
0#!
1'!
1&!
1%!
1)!
1$!
1(!
0A!
0H!
0I!
#447000
b101100101100111111001011010010 F!
#450000
08!
#455000
18!
#456000
0L
0B
0G
0Y
0V
0T
0M
0S
0`
0R
0\
0^
0P
0N
0K
0F
0E
1]
0D
0C
0Q
0[
0I
0A
0O
0Z
0_
0J
1W
0H
1X
0U
1*!
1A!
1B!
1H!
1I!
#457000
07!
0C!
#460000
08!
#465000
18!
#466000
x$
x&
x-
x+
x2
x/
x,
x'
x*
x)
x%
x1
x.
x#
x0
x"
x(
x!
x?
x@
x9
x8
x7
x>
x=
x<
x;
x:
x6
x5
x4
x3
x#!
x'!
x&!
x%!
0)!
x$!
x(!
0*!
0A!
0H!
0I!
#467000
b1011001011001111110010110100101 F!
#470000
08!
#475000
18!
#476000
0$
0&
0-
0+
02
0/
0,
0'
0*
0)
0%
01
0.
0#
00
0"
0(
xL
xB
xG
xY
xV
xT
xM
xS
x`
xR
x\
x^
xP
xN
xK
xF
xE
x]
xD
xC
xQ
x[
xI
xA
xO
0!
xZ
x_
xJ
xW
xH
xX
xU
0?
0@
09
08
07
0>
0=
1<
0;
0:
06
05
04
03
0#!
1'!
1&!
1%!
1)!
1$!
1(!
1A!
1H!
1I!
#480000
08!
#485000
18!
#486000
0L
0B
0G
0Y
0V
0T
0M
0S
0`
0R
0\
0^
0P
0N
0K
0F
0E
1]
0D
0C
0Q
0[
0I
0A
0O
0Z
0_
0J
1W
0H
1X
0U
1*!
0A!
0H!
0I!
#487000
b10110010110011111100101101001011 F!
#490000
08!
#495000
18!
#496000
x$
x&
x-
x+
x2
x/
x,
x'
x*
x)
x%
x1
x.
x#
x0
x"
x(
x!
x?
x@
x9
x8
x7
x>
x=
x<
x;
x:
x6
x5
x4
x3
x#!
x'!
x&!
x%!
0)!
x$!
x(!
0*!
1A!
0B!
1H!
1I!
#497000
17!
1C!
#500000
08!
#505000
18!
#506000
0$
0&
0-
0+
02
0/
0,
0'
0*
0)
0%
01
0.
0#
00
0"
0(
xL
xB
xG
xY
xV
xT
xM
xS
x`
xR
x\
x^
xP
xN
xK
xF
xE
x]
xD
xC
xQ
x[
xI
xA
xO
0!
xZ
x_
xJ
xW
xH
xX
xU
0?
0@
09
08
07
0>
0=
1<
0;
0:
06
05
04
03
0#!
1'!
1&!
1%!
1)!
1$!
1(!
0A!
0H!
0I!
#507000
b1100101100111111001011010010110 F!
#510000
08!
#515000
18!
#516000
0L
0B
0G
0Y
0V
0T
0M
0S
0`
0R
0\
0^
0P
0N
0K
0F
0E
1]
0D
0C
0Q
0[
0I
0A
0O
0Z
0_
0J
1W
0H
1X
0U
1*!
1A!
1B!
1H!
1I!
#517000
07!
0C!
#520000
08!
#525000
18!
#526000
x$
x&
x-
x+
x2
x/
x,
x'
x*
x)
x%
x1
x.
x#
x0
x"
x(
x!
x?
x@
x9
x8
x7
x>
x=
x<
x;
x:
x6
x5
x4
x3
x#!
x'!
x&!
x%!
0)!
x$!
x(!
0*!
0A!
0H!
0I!
#527000
b11001011001111110010110100101101 F!
#530000
08!
#535000
18!
#536000
0$
0&
0-
0+
02
0/
0,
0'
0*
0)
0%
01
0.
0#
00
0"
0(
xL
xB
xG
xY
xV
xT
xM
xS
x`
xR
x\
x^
xP
xN
xK
xF
xE
x]
xD
xC
xQ
x[
xI
xA
xO
0!
xZ
x_
xJ
xW
xH
xX
xU
0?
0@
09
08
07
0>
0=
1<
0;
0:
06
05
04
03
0#!
1'!
1&!
1%!
1)!
1$!
1(!
1A!
0B!
1H!
1I!
#537000
17!
1C!
#540000
08!
#545000
18!
#546000
0L
0B
0G
0Y
0V
0T
0M
0S
0`
0R
0\
0^
0P
0N
0K
0F
0E
1]
0D
0C
0Q
0[
0I
0A
0O
0Z
0_
0J
1W
0H
1X
0U
1*!
0A!
0H!
0I!
#547000
b10010110011111100101101001011010 F!
#550000
08!
#555000
18!
#556000
x$
x&
x-
x+
x2
x/
x,
x'
x*
x)
x%
x1
x.
x#
x0
x"
x(
x!
x?
x@
x9
x8
x7
x>
x=
x<
x;
x:
x6
x5
x4
x3
x#!
x'!
x&!
x%!
0)!
x$!
x(!
0*!
#560000
08!
#565000
18!
#566000
0$
0&
0-
0+
02
0/
0,
0'
0*
0)
0%
01
0.
0#
00
0"
0(
xL
xB
xG
xY
xV
xT
xM
xS
x`
xR
x\
x^
xP
xN
xK
xF
xE
x]
xD
xC
xQ
x[
xI
xA
xO
0!
xZ
x_
xJ
xW
xH
xX
xU
0?
0@
09
08
07
0>
0=
1<
0;
0:
06
05
04
03
0#!
1'!
1&!
1%!
1)!
1$!
1(!
#570000
08!
#575000
18!
#576000
0L
0B
0G
0Y
0V
0T
0M
0S
0`
0R
0\
0^
0P
0N
0K
0F
0E
1]
0D
0C
0Q
0[
0I
0A
0O
0Z
0_
0J
1W
0H
0X
0U
1*!
1B!
#580000
08!
#585000
18!
#586000
b1000001000 :!
x$
x&
x-
x+
x2
x/
x,
x'
x*
x)
x%
x1
x.
x#
x0
x"
x(
x!
x?
x@
x9
x8
x7
x>
x=
x<
x;
x:
x6
x5
x4
x3
x#!
x'!
x&!
x%!
0)!
x$!
x(!
0*!
#590000
08!
#595000
18!
#596000
0$
0&
0-
0+
02
0/
0,
0'
0*
0)
0%
01
0.
0#
00
0"
0(
xL
xB
xG
xY
xV
xT
xM
xS
x`
xR
x\
x^
xP
xN
xK
xF
xE
x]
xD
xC
xQ
x[
xI
xA
xO
0!
xZ
x_
xJ
xW
xH
xX
xU
0?
0@
09
08
07
0>
0=
0<
0;
0:
06
05
04
03
0#!
1'!
1&!
1%!
1)!
1$!
1(!
#600000
08!
#605000
18!
#606000
0L
0B
0G
1Y
0V
0T
0M
0S
1`
0R
0\
1^
0P
0N
0K
0F
0E
0]
0D
0C
0Q
1[
0I
0A
0O
0Z
0_
0J
0W
0H
0X
0U
1*!
#610000
08!
#615000
18!
#616000
b10100101 :!
b10100101 >!
x$
x&
x-
x+
x2
x/
x,
x'
x*
x)
x%
x1
x.
x#
x0
x"
x(
x!
x?
x@
x9
x8
x7
x>
x=
x<
x;
x:
x6
x5
x4
x3
x#!
x'!
x&!
x%!
0)!
x$!
x(!
0*!
0D!
1E!
#617000
0$
0&
0-
0+
02
0/
0,
0'
0*
0)
0%
01
0.
0#
00
0"
0(
1"!
0!!
1~
0!
0?
0@
09
08
07
0>
0=
0<
0;
0:
06
05
04
03
0b
0n
0g
0r
0p
1#!
1'!
0q
1&!
0x
0a
1%!
0k
0f
1)!
0u
0s
0o
1{
0l
1y
0v
0t
0h
0d
1$!
1(!
0}
0m
0j
0|
0w
0i
0c
0e
0z
#620000
08!
#625000
18!
#626000
1*!
#630000
08!
#635000
18!
#636000
x$
x&
x-
x+
x2
x/
x,
x'
x*
x)
x%
x1
x.
x#
x0
x"
x(
x"!
x!!
x~
x!
x?
x@
x9
x8
x7
x>
x=
x<
x;
x:
x6
x5
x4
x3
xb
xn
xg
xr
xp
x#!
x'!
xq
x&!
xx
xa
x%!
xk
xf
0)!
xu
xs
xo
x{
xl
xy
xv
xt
xh
xd
x$!
x(!
x}
xm
xj
x|
xw
xi
xc
xe
xz
0*!
#637000
0$
0&
0-
0+
02
0/
0,
0'
0*
0)
0%
01
0.
0#
00
0"
0(
0"!
0!!
0~
0!
0?
0@
09
08
07
0>
0=
1<
0;
0:
06
05
04
03
0b
0n
0g
0r
0p
1#!
1'!
0q
1&!
0x
0a
1%!
0k
0f
1)!
0u
0s
0o
0{
0l
0y
1v
0t
0h
0d
1$!
1(!
1}
0m
0j
0|
0w
0i
0c
0e
0z
#640000
08!
#645000
18!
#646000
0Y
0`
0^
1]
0[
1W
1*!
#650000
08!
#655000
18!
#656000
x$
x&
x-
x+
x2
x/
x,
x'
x*
x)
x%
x1
x.
x#
x0
x"
x(
1V
x"!
x!!
x~
x!
0W
x?
x@
x9
x8
x7
x>
x=
x<
x;
x:
x6
x5
x4
x3
xb
xn
xg
xr
xp
x#!
x'!
xq
x&!
xx
xa
x%!
xk
xf
0)!
xu
xs
xo
x{
xl
xy
xv
xt
xh
xd
x$!
x(!
x}
xm
xj
x|
xw
xi
xc
xe
xz
0*!
#657000
0$
0&
0-
0+
02
0/
0,
0'
0*
0)
0%
01
0.
0#
00
0"
0(
0"!
0!!
0~
0!
0?
0@
09
08
07
0>
0=
1<
0;
0:
06
05
04
03
0b
0n
0g
0r
0p
1#!
1'!
0q
1&!
1x
0a
1%!
0k
0f
1)!
0u
0s
0o
0{
0l
0y
1v
0t
0h
0d
1$!
1(!
1}
0m
0j
0|
0w
0i
0c
0e
0z
#660000
08!
#665000
18!
#666000
1*!
#670000
08!
#675000
18!
#676000
x$
x&
x-
x+
x2
x/
x,
x'
x*
x)
x%
x1
x.
x#
x0
x"
x(
x"!
x!!
x~
x!
1X
x?
x@
x9
x8
x7
x>
x=
x<
x;
x:
x6
x5
x4
x3
xb
xn
xg
xr
xp
x#!
x'!
xq
x&!
xx
xa
x%!
xk
xf
0)!
xu
xs
xo
x{
xl
xy
xv
xt
xh
xd
x$!
x(!
x}
xm
xj
x|
xw
xi
xc
xe
xz
0*!
#677000
0$
0&
0-
0+
02
0/
0,
0'
0*
0)
0%
01
0.
0#
00
0"
0(
0!
0?
0@
09
08
07
0>
0=
1<
0;
0:
06
05
04
03
0#!
1'!
1&!
1%!
1)!
1$!
1(!
#680000
08!
#685000
18!
#686000
1*!
1A!
1G!
1J!
#687000
b101100111111001011010010110101 F!
#690000
08!
#695000
18!
#696000
b10100001000 :!
x$
x&
x-
x+
x2
x/
x,
x'
x*
x)
x%
x1
x.
x#
x0
x"
x(
x!
x?
x@
x9
x8
x7
x>
x=
x<
x;
x:
x6
x5
x4
x3
x#!
x'!
x&!
x%!
0)!
x$!
x(!
0*!
0A!
0B!
0G!
0J!
#697000
07!
0C!
#700000
08!
#705000
18!
#706000
0$
0&
0-
0+
02
0/
0,
0'
0*
0)
0%
01
0.
0#
00
0"
0(
xL
xB
xG
xY
xV
xT
xM
xS
x`
xR
x\
x^
xP
xN
xK
xF
xE
x]
xD
xC
xQ
x[
xI
xA
xO
0!
xZ
x_
xJ
xW
xH
xX
xU
0?
0@
09
08
07
0>
0=
1<
0;
0:
06
05
04
03
0#!
1'!
1&!
1%!
1)!
1$!
1(!
1A!
1G!
1J!
#707000
b1011001111110010110100101101010 F!
#710000
08!
#715000
18!
#716000
0L
0B
0G
0Y
1V
0T
0M
0S
0`
0R
0\
0^
0P
0N
0K
0F
0E
1]
0D
0C
0Q
0[
0I
0A
0O
0Z
0_
0J
0W
0H
1X
0U
1*!
0A!
1B!
0G!
0J!
#720000
08!
#725000
18!
#726000
x$
x&
x-
x+
x2
x/
x,
x'
x*
x)
x%
x1
x.
x#
x0
x"
x(
x!
x?
x@
x9
x8
x7
x>
x=
x<
x;
x:
x6
x5
x4
x3
x#!
x'!
x&!
x%!
0)!
x$!
x(!
0*!
1A!
1G!
1J!
#727000
b10110011111100101101001011010101 F!
#730000
08!
#735000
18!
#736000
0$
0&
0-
0+
02
0/
0,
0'
0*
0)
0%
01
0.
0#
00
0"
0(
xL
xB
xG
xY
xV
xT
xM
xS
x`
xR
x\
x^
xP
xN
xK
xF
xE
x]
xD
xC
xQ
x[
xI
xA
xO
0!
xZ
x_
xJ
xW
xH
xX
xU
0?
0@
09
08
07
0>
0=
1<
0;
0:
06
05
04
03
0#!
1'!
1&!
1%!
1)!
1$!
1(!
0A!
0B!
0G!
0J!
#737000
17!
1C!
#740000
08!
#745000
18!
#746000
0L
0B
0G
0Y
1V
0T
0M
0S
0`
0R
0\
0^
0P
0N
0K
0F
0E
1]
0D
0C
0Q
0[
0I
0A
0O
0Z
0_
0J
0W
0H
1X
0U
1*!
1A!
1G!
1J!
#747000
b1100111111001011010010110101010 F!
#750000
08!
#755000
18!
#756000
x$
x&
x-
x+
x2
x/
x,
x'
x*
x)
x%
x1
x.
x#
x0
x"
x(
x!
x?
x@
x9
x8
x7
x>
x=
x<
x;
x:
x6
x5
x4
x3
x#!
x'!
x&!
x%!
0)!
x$!
x(!
0*!
0A!
0G!
0J!
#757000
07!
0C!
#760000
08!
#765000
18!
#766000
0$
0&
0-
0+
02
0/
0,
0'
0*
0)
0%
01
0.
0#
00
0"
0(
xL
xB
xG
xY
xV
xT
xM
xS
x`
xR
x\
x^
xP
xN
xK
xF
xE
x]
xD
xC
xQ
x[
xI
xA
xO
0!
xZ
x_
xJ
xW
xH
xX
xU
0?
0@
09
08
07
0>
0=
1<
0;
0:
06
05
04
03
0#!
1'!
1&!
1%!
1)!
1$!
1(!
1A!
1G!
1J!
#767000
b11001111110010110100101101010100 F!
#770000
08!
#775000
18!
#776000
0L
0B
0G
0Y
1V
0T
0M
0S
0`
0R
0\
0^
0P
0N
0K
0F
0E
1]
0D
0C
0Q
0[
0I
0A
0O
0Z
0_
0J
0W
0H
1X
0U
1*!
0A!
1B!
0G!
0J!
#777000
17!
1C!
#780000
08!
#785000
18!
